week5-rexercise
…
# When adding a tlm, just visualize first, to see if the area is as expected

use st_join to annotate wildboar data with landuse

st_join(wildschwein_BE, fanel)

Simple feature collection with 51246 features and 8 fields
Geometry type: POINT
Dimension:     XY
Bounding box:  xmin: 2568153 ymin: 1202306 xmax: 2575154 ymax: 1207609
Projected CRS: CH1903+ / LV95
# A tibble: 51,246 × 9
   TierID TierName CollarID DatetimeUTC                E        N
 * <chr>  <chr>       <dbl> <dttm>                 <dbl>    <dbl>
 1 002A   Sabi        12275 2014-08-22 21:00:12 2570409. 1204752.
 2 002A   Sabi        12275 2014-08-22 21:15:16 2570402. 1204863.
 3 002A   Sabi        12275 2014-08-22 21:30:43 2570394. 1204826.
 4 002A   Sabi        12275 2014-08-22 21:46:07 2570379. 1204817.
 5 002A   Sabi        12275 2014-08-22 22:00:22 2570390. 1204818.
 6 002A   Sabi        12275 2014-08-22 22:15:10 2570390. 1204825.
 7 002A   Sabi        12275 2014-08-22 22:30:13 2570387. 1204831.
 8 002A   Sabi        12275 2014-08-22 22:45:11 2570381. 1204840.
 9 002A   Sabi        12275 2014-08-22 23:00:27 2570316. 1204935.
10 002A   Sabi        12275 2014-08-22 23:15:41 2570393. 1204815.
# … with 51,236 more rows, and 3 more variables: geometry <POINT [m]>,
#   FieldID <dbl>, Frucht <chr>
